{
    "attribution": "", 
    "description": "Starbucks locations vs. Gun Shops", 
    "bounds": "-180,10.8333,180,72.5017", 
    "minzoom": "0", 
    "version": "1.0.0", 
    "template": "", 
    "maxzoom": "7", 
    "name": "Coffee & Guns"
}