states,total
CA,2392
TX,804
WA,682
FL,557
IL,506
NY,504
CO,404
AZ,387
VA,347
OR,328
OH,280
PA,262
GA,260
NC,229
NV,215
MD,214
MI,203
MA,200
NJ,190
IN,173
MO,141
TN,130
MN,122
WI,113
CT,97
KY,85
HI,80
DC,79
SC,75
OK,68
LA,66
AL,64
KS,64
NM,56
UT,55
IA,53
ID,51
AK,42
NE,39
AR,34
ME,25
RI,23
MS,21
NH,20
WV,20
SD,19
MT,18
DE,16
WY,15
ND,11
VT,4