states,total
TX,7155
FL,3644
PA,2974
OH,2955
NC,2738
MO,2658
MI,2624
IL,2438
GA,2280
VA,2062
NY,2000
CO,1964
WI,1854
OK,1802
TN,1773
MN,1739
IN,1712
KY,1668
IA,1500
AR,1498
LA,1414
AL,1404
SC,1281
KS,1271
MT,1268
WV,1073
MS,1066
ID,974
NE,785
WY,723
MD,691
CT,634
SD,619
ME,611
NH,578
MA,563
ND,466
NJ,386
VT,365
DE,145
RI,107
PR,54
VI,11
DC,7