,state,total
52,TX,10313
15,FL,5108
46,PA,4621
43,OH,4330
31,MO,4178
29,MI,4027
35,NC,3911
21,IL,3602
16,GA,3329
42,NY,3108
54,VA,3053
58,WI,2839
11,CO,2784
10,CA,2747
44,OK,2732
51,TN,2684
30,MN,2655
22,IN,2574
24,KY,2492
19,IA,2331
7,AR,2276
9,AZ,2227
25,LA,2175
6,AL,2109
34,MT,1998
23,KS,1902
49,SC,1829
20,ID,1672
33,MS,1644
59,WV,1608
45,OR,1354
53,UT,1233
37,NE,1198
60,WY,1076
57,WA,1035
27,MD,1016
12,CT,944
28,ME,920
50,SD,901
26,MA,867
38,NH,812
40,NM,781
41,NV,737
36,ND,733
5,AK,602
56,VT,597
39,NJ,582
14,DE,198
48,RI,166
18,HI,107
47,PR,71
55,VI,26
13,DC,16