<?xml version="1.0" encoding="utf-8"?>
<!-- Generator: Adobe Illustrator 19.1.0, SVG Export Plug-In . SVG Version: 6.00 Build 0)  -->
<svg version="1.1" id="Icons" xmlns="http://www.w3.org/2000/svg" xmlns:xlink="http://www.w3.org/1999/xlink" x="0px" y="0px"
	 viewBox="0 0 82.5 90.5" enable-background="new 0 0 82.5 90.5" xml:space="preserve">
<g>
	<g>
		<path fill="#1EA462" d="M24.1,26.8l7,47.5c4,1.4,8.8,2.5,14.1,2.5c5.4,0,9.7-0.9,14.3-2.5L66,26.9l0.2-1.7c1.9-0.3,3-0.7,3-1.1
			l-0.4-5.3c0-0.6-2.1-1.1-5.5-1.5l-0.3-3.8c0-1-8.1-1.9-18-1.9c-9.9,0-18,0.9-18,1.9l-0.3,3.9c-3.2,0.4-5.2,0.9-5.2,1.4l-0.4,5.3
			c0,0.4,0.9,0.7,2.4,1L24.1,26.8z"/>
	</g>
</g>
</svg>
