{
    "attribution": "", 
    "description": "Starbucks locations vs. Gun Shops", 
    "center": "-127.9688,47.2792,1", 
    "bounds": "-180,10.8333,-55.5469,72.5017", 
    "minzoom": "0", 
    "version": "1.0.0", 
    "template": "", 
    "maxzoom": "7", 
    "name": "Coffee & Guns"
}