<?xml version="1.0" encoding="utf-8"?>
<!-- Generator: Adobe Illustrator 19.1.0, SVG Export Plug-In . SVG Version: 6.00 Build 0)  -->
<svg version="1.1" id="Icons" xmlns="http://www.w3.org/2000/svg" xmlns:xlink="http://www.w3.org/1999/xlink" x="0px" y="0px"
	 viewBox="0 0 119 90" enable-background="new 0 0 119 90" xml:space="preserve">
<path fill="#C81A75" d="M98.3,42l0.2-6.1l1.6,0c0.4,0,0.8-0.3,0.8-0.7l0.2-7.7c0-0.4-0.3-0.8-0.7-0.8l-1.6,0c0.1-1.5-1-2.6-2.2-2.6
	L95,24l0-1.1c0-0.4-0.3-0.8-0.7-0.8L90.6,22c-0.4,0-0.6,0.4-0.7,0.8l-0.4,1.1l-49.1-1.5c-0.6-0.4-1.1-0.8-1.6-1.1
	c-0.3-0.2-0.9-0.8-1.4-0.8l-6-0.2c-0.5,0-0.9,0.3-0.9,0.8l0,1.1L27.5,22c-1.3,0-2.3,1-2.4,2.2l-3.5,15.4c0,1.1,0.8,2.1,1.9,2.3
	l-0.1,0c0,0,5,0.7,4.4,4C19.2,69.2,21,74,21,74c0.2,1.2,1.2,2.1,2.3,2.2l21.2,0.6c1.2,0,2.3-0.9,2.6-2c0,0,0.9-6,3.9-17l14.2,0.4
	c2.2,0.1,4.3-0.6,5.7-1.9c1.9-1.8,2.4-4,3-5.9l1.5-6.8l20.5,0.6C97.2,44.2,98.2,43.2,98.3,42z M67.3,52.3c-0.3,0.2-0.5,0.4-1.7,0.4
	l-12.8-0.4c0.9-2.9,1.8-6,3-9.4l1.2,0c-0.1,1.9-0.1,5.6,1.7,7.7l1.2,0c0,0,0.2-5.1,3-7.5l7,0.2L68.7,49
	C68.1,50.9,67.6,52.1,67.3,52.3z"/>
</svg>
